<?xml version="1.0" encoding="UTF-8" standalone="no"?>
<!-- Created with Inkscape (http://www.inkscape.org/) -->

<svg
   width="8"
   height="8"
   viewBox="0 0 2.1166666 2.1166666"
   version="1.1"
   id="svg1"
   xml:space="preserve"
   inkscape:version="1.3.2 (091e20ef0f, 2023-11-25)"
   sodipodi:docname="n_0.svg"
   xmlns:inkscape="http://www.inkscape.org/namespaces/inkscape"
   xmlns:sodipodi="http://sodipodi.sourceforge.net/DTD/sodipodi-0.dtd"
   xmlns="http://www.w3.org/2000/svg"
   xmlns:svg="http://www.w3.org/2000/svg"><sodipodi:namedview
     id="namedview1"
     pagecolor="#505050"
     bordercolor="#eeeeee"
     borderopacity="1"
     inkscape:showpageshadow="0"
     inkscape:pageopacity="0"
     inkscape:pagecheckerboard="0"
     inkscape:deskcolor="#505050"
     inkscape:document-units="mm"
     inkscape:zoom="99.164601"
     inkscape:cx="3.3731795"
     inkscape:cy="5.0118691"
     inkscape:window-width="1920"
     inkscape:window-height="1080"
     inkscape:window-x="0"
     inkscape:window-y="0"
     inkscape:window-maximized="1"
     inkscape:current-layer="svg1" /><defs
     id="defs1" /><path
     id="path5"
     style="color:#000000;fill:#000000;-inkscape-stroke:none"
     d="M 1.0588501 0.13280843 C 0.84122942 0.13280843 0.6619751 0.31154593 0.6619751 0.52916667 C 0.6619751 0.70017142 0.77261935 0.84762546 0.9255249 0.90278727 L 0.9255249 1.0273275 L 0.9255249 1.4061157 L 0.9255249 2.1171834 L 1.1916585 2.1171834 L 1.1916585 1.4061157 L 1.1916585 1.0273275 L 1.1916585 0.90278727 C 1.3445641 0.84762546 1.4552083 0.70017142 1.4552083 0.52916667 C 1.4552083 0.31154593 1.2764709 0.13280843 1.0588501 0.13280843 z M 1.0588501 0.39635824 C 1.13349 0.39635824 1.1916585 0.45452715 1.1916585 0.52916667 C 1.1916585 0.60380619 1.1334895 0.6619751 1.0588501 0.6619751 C 0.98421067 0.6619751 0.9255249 0.60380619 0.9255249 0.52916667 C 0.9255249 0.45452714 0.98421062 0.39635824 1.0588501 0.39635824 z " /></svg>
